##############################################
#### BACKENDLAYOUT: DEFAULT SUBNAVIGATION ####
##############################################
mod {
    web_layout {
        BackendLayouts {
            default_subnavigation_right {
                title = LLL:EXT:theme/Resources/Private/Language/Backend.xlf:backend_layout.default_subnavigation_right
                config {
                    backend_layout {
                        colCount = 6
                        rowCount = 2
                        rows {
                            1 {
                                columns {
                                    1 {
                                        name = LLL:EXT:theme/Resources/Private/Language/Backend.xlf:backend_layout.column.normal
                                        colPos = 0
                                        colspan = 5
                                    }
                                    2 {
                                        name = LLL:EXT:theme/Resources/Private/Language/Backend.xlf:backend_layout.column.subnav
                                        colspan = 1
                                    }
                                }
                            }
                            2 {
                                columns {
                                    1 {
                                        name = LLL:EXT:theme/Resources/Private/Language/Backend.xlf:backend_layout.column.footer1
                                        colPos = 10
                                        colspan = 2
                                    }
                                    2 {
                                        name = LLL:EXT:theme/Resources/Private/Language/Backend.xlf:backend_layout.column.footer2
                                        colPos = 11
                                        colspan = 2
                                    }
                                    3 {
                                        name = LLL:EXT:theme/Resources/Private/Language/Backend.xlf:backend_layout.column.footer3
                                        colPos = 12
                                        colspan = 2
                                    }
                                }
                            }
                        }
                    }
                }
                icon = EXT:theme/Resources/Public/Images/BackendLayouts/default_subnavigation_right.gif
            }
        }
    }
}